{
    "KPlugin": {
        "Authors": [
            {
                "Email": "kde@privat.broulik.de",
                "Name": "Kai Uwe Broulik",
                "Name[ar]": "Kai Uwe Broulik",
                "Name[az]": "Kai Uwe Broulik",
                "Name[be]": "Kai Uwe Broulik",
                "Name[bg]": "Kai Uwe Broulik",
                "Name[ca@valencia]": "Kai Uwe Broulik",
                "Name[ca]": "Kai Uwe Broulik",
                "Name[cs]": "Kai Uwe Broulik",
                "Name[da]": "Kai Uwe Broulik",
                "Name[de]": "Kai Uwe Broulik",
                "Name[en_GB]": "Kai Uwe Broulik",
                "Name[es]": "Kai Uwe Broulik",
                "Name[et]": "Kai Uwe Broulik",
                "Name[eu]": "Kai Uwe Broulik",
                "Name[fi]": "Kai Uwe Broulik",
                "Name[fr]": "Kai Uwe Broulik",
                "Name[hu]": "Kai Uwe Broulik",
                "Name[ia]": "Kai Uwe Broulik",
                "Name[id]": "Kai Uwe Broulik",
                "Name[is]": "Kai Uwe Broulik",
                "Name[it]": "Kai Uwe Broulik",
                "Name[ja]": "Kai Uwe Broulik",
                "Name[ka]": "კაი უვე ბროულიკი",
                "Name[ko]": "Kai Uwe Broulik",
                "Name[lt]": "Kai Uwe Broulik",
                "Name[nl]": "Kai Uwe Broulik",
                "Name[nn]": "Kai Uwe Broulik",
                "Name[pl]": "Kai Uwe Broulik",
                "Name[pt]": "Kai Uwe Broulik",
                "Name[pt_BR]": "Kai Uwe Broulik",
                "Name[ro]": "Kai Uwe Broulik",
                "Name[ru]": "Kai Uwe Broulik",
                "Name[sk]": "Kai Uwe Broulik",
                "Name[sl]": "Kai Uwe Broulik",
                "Name[sv]": "Kai Uwe Broulik",
                "Name[ta]": "காய் ஊவே புரோலிக்",
                "Name[tr]": "Kai Uwe Broulik",
                "Name[uk]": "Kai Uwe Broulik",
                "Name[vi]": "Kai Uwe Broulik",
                "Name[x-test]": "xxKai Uwe Broulikxx",
                "Name[zh_CN]": "Kai Uwe Broulik"
            }
        ],
        "BugReportUrl": "https://bugs.kde.org/enter_bug.cgi?product=plasmashell&component=Notifications",
        "Category": "Tasks",
        "Description": "Display notifications and jobs",
        "Description[ar]": "اعرض الإخطارات والمهام",
        "Description[az]": "Bildirişləri və əməlləri göstərmək",
        "Description[be]": "Паказ апавяшчэнняў і задач",
        "Description[bg]": "Показване на известия и задачи",
        "Description[ca@valencia]": "Mostra les notificacions i els treballs",
        "Description[ca]": "Mostra les notificacions i els treballs",
        "Description[cs]": "Upozornění a úlohy",
        "Description[da]": "Vis bekendtgørelser og job",
        "Description[de]": "Benachrichtigungen und Aktionen anzeigen",
        "Description[en_GB]": "Display notifications and jobs",
        "Description[es]": "Mostrar notificaciones y tareas",
        "Description[et]": "Märguannete ja tööde näitamine",
        "Description[eu]": "Azaldu jakinarazpenak eta atazak",
        "Description[fi]": "Näytä ilmoituksia ja töitä",
        "Description[fr]": "Afficher les notifications et les tâches",
        "Description[hu]": "Értesítések és feladatok megjelenítése",
        "Description[ia]": "Monstra notificationes e labores",
        "Description[id]": "Tampilan notifikasi dan tugas",
        "Description[is]": "Birting tilkynninga og verka",
        "Description[it]": "Visualizza le notifiche ed i processi",
        "Description[ja]": "通知とジョブを表示します",
        "Description[ka]": "შეტყობინებებისა და ამოცანების ჩვენება",
        "Description[ko]": "알림과 작업 표시",
        "Description[lt]": "Rodyti pranešimus ir darbus",
        "Description[nl]": "Meldingen en taken tonen",
        "Description[nn]": "Vis varslingar og jobbar",
        "Description[pa]": "ਨੋਟੀਫਿਕੇਸ਼ਨ ਤੇ ਜਾਬ ਵੇਖੋ",
        "Description[pl]": "Wyświetla powiadomienia i zadania",
        "Description[pt]": "Mostrar as notificações e tarefas",
        "Description[pt_BR]": "Exibe notificações e tarefas",
        "Description[ro]": "Afișează notificări și sarcini",
        "Description[ru]": "Уведомления и задания",
        "Description[sk]": "Zobrazenie upozornení a úloh",
        "Description[sl]": "Prikaz obvestil in poslov",
        "Description[sv]": "Visa underrättelser och jobb",
        "Description[ta]": "அறிவிப்புகள் மற்றும் பணிகளை காட்டும்",
        "Description[tr]": "Görevleri ve bildirimleri görüntüle",
        "Description[uk]": "Показ сповіщень і завдань",
        "Description[vi]": "Hiển thị thông báo và công việc",
        "Description[x-test]": "xxDisplay notifications and jobsxx",
        "Description[zh_CN]": "显示通知和任务",
        "EnabledByDefault": true,
        "FormFactors": [
            "desktop"
        ],
        "Icon": "preferences-desktop-notification-bell",
        "Id": "org.kde.plasma.notifications",
        "License": "GPL-2.0+",
        "Name": "Notifications",
        "Name[ar]": "إخطارات",
        "Name[az]": "Bildirilşlər",
        "Name[be@latin]": "Infarmavańnie",
        "Name[be]": "Апавяшчэнні",
        "Name[bg]": "Известия",
        "Name[bn]": "বিজ্ঞপ্তি",
        "Name[bn_IN]": "সূচনাবার্তা",
        "Name[br]": "Kemenn",
        "Name[bs]": "Obavještenja",
        "Name[ca@valencia]": "Notificacions",
        "Name[ca]": "Notificacions",
        "Name[cs]": "Upozornění",
        "Name[csb]": "Dôwanié wiédzë",
        "Name[da]": "Bekendtgørelser",
        "Name[de]": "Benachrichtigungen",
        "Name[el]": "Ειδοποιήσεις",
        "Name[en_GB]": "Notifications",
        "Name[eo]": "Atentigoj",
        "Name[es]": "Notificaciones",
        "Name[et]": "Märguanded",
        "Name[eu]": "Jakinarazpenak",
        "Name[fa]": "اخطارها",
        "Name[fi]": "Ilmoitukset",
        "Name[fr]": "Notifications",
        "Name[fy]": "Notifikaasjes",
        "Name[ga]": "Fógairt",
        "Name[gl]": "Notificacións",
        "Name[gu]": "નોંધણીઓ",
        "Name[he]": "הודעות",
        "Name[hi]": "सूचनाएँ",
        "Name[hne]": "सूचना मन ल",
        "Name[hr]": "Obavijesti",
        "Name[hsb]": "Zdźělenki",
        "Name[hu]": "Rendszerüzenetek",
        "Name[ia]": "Notificationes",
        "Name[id]": "Notifikasi",
        "Name[is]": "Kerfistilkynningar",
        "Name[it]": "Notifiche",
        "Name[ja]": "通知",
        "Name[ka]": "გაფრთხილებები",
        "Name[kk]": "Құлақтандыру",
        "Name[km]": "សេចក្តី​ជូន​ដំណឹង​",
        "Name[kn]": "ಸೂಚನೆಗಳು",
        "Name[ko]": "알림",
        "Name[ku]": "Agahdarî",
        "Name[lt]": "Pranešimai",
        "Name[lv]": "Paziņojumi",
        "Name[mai]": "सूचनासभ",
        "Name[mk]": "Известувања",
        "Name[ml]": "അറിയിപ്പുകള്‍",
        "Name[mr]": "सूचना",
        "Name[ms]": "Pemberitahuan",
        "Name[nb]": "Varslinger",
        "Name[nds]": "Bescheden",
        "Name[ne]": "सूचना",
        "Name[nl]": "Meldingen",
        "Name[nn]": "Varslingar",
        "Name[oc]": "Notificacions",
        "Name[or]": "ବିଜ୍ଞପ୍ତି",
        "Name[pa]": "ਨੋਟੀਫਿਕੇਸ਼ਨ",
        "Name[pl]": "Powiadomienia",
        "Name[pt]": "Notificações",
        "Name[pt_BR]": "Notificações",
        "Name[ro]": "Notificări",
        "Name[ru]": "Уведомления",
        "Name[se]": "Dieđáhusat",
        "Name[si]": "දැනුම් දීම්",
        "Name[sk]": "Upozornenia",
        "Name[sl]": "Obvestila",
        "Name[sr@ijekavian]": "обавјештења",
        "Name[sr@ijekavianlatin]": "obavještenja",
        "Name[sr@latin]": "obaveštenja",
        "Name[sr]": "обавештења",
        "Name[sv]": "Underrättelser",
        "Name[ta]": "அறிவிப்புகள்",
        "Name[te]": "నోటీసులు",
        "Name[tg]": "Огоҳиҳо",
        "Name[th]": "การแจ้งให้ทราบต่าง ๆ",
        "Name[tr]": "Bildirimler",
        "Name[ug]": "ئۇقتۇرۇشلار",
        "Name[uk]": "Сповіщення",
        "Name[uz@cyrillic]": "Хабарномалар",
        "Name[uz]": "Xabarnomalar",
        "Name[vi]": "Thông báo",
        "Name[wa]": "Notifiaedjes",
        "Name[x-test]": "xxNotificationsxx",
        "Name[zh_CN]": "通知",
        "Name[zh_TW]": "通知",
        "ServiceTypes": [
            "Plasma/Applet"
        ],
        "Version": "4.0",
        "Website": "https://kde.org/plasma-desktop/"
    },
    "X-KDE-ParentApp": "org.kde.plasmashell",
    "X-Plasma-API": "declarativeappletscript",
    "X-Plasma-MainScript": "ui/main.qml",
    "X-Plasma-NotificationArea": "true",
    "X-Plasma-NotificationAreaCategory": "SystemServices",
    "X-Plasma-Provides": [
        "org.kde.plasma.notifications"
    ]
}
