{
    "KPlugin": {
        "Authors": [
            {
                "Email": "chani@kde.org",
                "Name": "Chani Armitage",
                "Name[ar]": "Chani Armitage",
                "Name[az]": "Chani Armitage",
                "Name[be]": "Chani Armitage",
                "Name[bg]": "Chani Armitage",
                "Name[ca@valencia]": "Chani Armitage",
                "Name[ca]": "Chani Armitage",
                "Name[cs]": "Chani Armitage",
                "Name[da]": "Chani Armitage",
                "Name[de]": "Chani Armitage",
                "Name[en_GB]": "Chani Armitage",
                "Name[es]": "Chani Armitage",
                "Name[et]": "Chani Armitage",
                "Name[eu]": "Chani Armitage",
                "Name[fi]": "Chani Armitage",
                "Name[fr]": "Chani Armitage",
                "Name[hu]": "Chani Armitage",
                "Name[ia]": "Chani Armitage",
                "Name[id]": "Chani Armitage",
                "Name[is]": "Chani Armitage",
                "Name[it]": "Chani Armitage",
                "Name[ja]": "Chani Armitage",
                "Name[ka]": "Chani Armitage",
                "Name[ko]": "Chani Armitage",
                "Name[lt]": "Chani Armitage",
                "Name[nl]": "Chani Armitage",
                "Name[nn]": "Chani Armitage",
                "Name[pl]": "Chani Armitage",
                "Name[pt]": "Chani Armitage",
                "Name[pt_BR]": "Chani Armitage",
                "Name[ro]": "Chani Armitage",
                "Name[ru]": "Chani Armitage",
                "Name[sk]": "Chani Armitage",
                "Name[sl]": "Chani Armitage",
                "Name[sv]": "Chani Armitage",
                "Name[ta]": "இச்சானி ஆர்மிட்டேஜ்",
                "Name[tr]": "Chani Armitage",
                "Name[uk]": "Chani Armitage",
                "Name[vi]": "Chani Armitage",
                "Name[x-test]": "xxChani Armitagexx",
                "Name[zh_CN]": "Chani Armitage"
            }
        ],
        "Category": "",
        "Description": "Information on Plasma Activities",
        "Description[ar]": "معلومات أنشطة بلازما",
        "Description[az]": "Plasma İş otaqları məlumatları",
        "Description[be]": "Звесткі пра пакоі Plasma",
        "Description[bg]": "Информация за дейности в Plasma",
        "Description[ca@valencia]": "Informació quant a activitats de Plasma",
        "Description[ca]": "Informació quant a activitats del Plasma",
        "Description[cs]": "Informace o Plasma aktivitách.",
        "Description[da]": "Information om Plasma-aktiviteter",
        "Description[de]": "Informationen über Plasma-Aktivitäten",
        "Description[en_GB]": "Information on Plasma Activities",
        "Description[es]": "Información sobre las actividades de Plasma",
        "Description[et]": "Teave Plasma tegevuste kohta.",
        "Description[eu]": "Plasmaren jarduerei buruzko informazioa",
        "Description[fi]": "Tietoa Plasma-aktiviteeteista",
        "Description[fr]": "Informations sur les activités de Plasma",
        "Description[hu]": "Információk a Plasma aktivitásokról",
        "Description[ia]": "Information re activitates de Plasma",
        "Description[id]": "Informasi pada Aktivitas Plasma",
        "Description[is]": "Upplýsingar um Plasma Activities athafnir",
        "Description[it]": "Informazioni sulle attività di Plasma",
        "Description[ja]": "Plasma アクティビティの情報",
        "Description[ka]": "Plasma-ის აქტივობების ინფორმაცია",
        "Description[ko]": "Plasma 활동 정보",
        "Description[lt]": "Informacija apie Plasma veiklas",
        "Description[nl]": "Informatie over Plasma activiteiten",
        "Description[nn]": "Informasjon om Plasma-aktivitetar",
        "Description[pa]": "ਪਲਾਜ਼ਮਾ ਸਰਗਰਮੀਆਂ ਲਈ ਜਾਣਕਾਰੀ",
        "Description[pl]": "Wyświetla informacje o aktywnościach Plazmy",
        "Description[pt]": "Informação sobre as Actividades do Plasma",
        "Description[pt_BR]": "Informações sobre as atividades do Plasma",
        "Description[ro]": "Informații despre activitățile Plasma",
        "Description[ru]": "Сведения о комнатах Plasma",
        "Description[sk]": "Informácie o Plasma aktivitách",
        "Description[sl]": "Informacije o dejavnostih za Plasmo",
        "Description[sv]": "Information om aktiviteter i Plasma",
        "Description[ta]": "பிளாஸ்மா செயல்பாடுகளை பற்றிய விவரங்கள்",
        "Description[tr]": "Plasma Etkinlikleri Üzerine Bilgiler",
        "Description[uk]": "Інформація про простори дій Плазми",
        "Description[vi]": "Thông tin về chức năng Hoạt động của Plasma",
        "Description[x-test]": "xxInformation on Plasma Activitiesxx",
        "Description[zh_CN]": "关于 Plasma 活动的信息",
        "EnabledByDefault": true,
        "Icon": "preferences-desktop-activities",
        "Id": "org.kde.activities",
        "License": "LGPL",
        "Name": "Activities Engine",
        "Name[ar]": "محرّك الأنشطة",
        "Name[az]": "İş otağı üçün məlumat mənbəyi",
        "Name[be]": "Сістэма пакояў",
        "Name[bg]": "Енджин за дейности",
        "Name[bs]": "Motor aktivnosti",
        "Name[ca@valencia]": "Motor d'activitats",
        "Name[ca]": "Motor d'activitats",
        "Name[cs]": "Stroj aktivit",
        "Name[da]": "Aktivitetsmotor",
        "Name[de]": "Aktivitätenverwaltung",
        "Name[el]": "Μηχανή δραστηριοτήτων",
        "Name[en_GB]": "Activities Engine",
        "Name[es]": "Motor de actividades",
        "Name[et]": "Tegevuste mootor",
        "Name[eu]": "Jarduera-motorra",
        "Name[fi]": "Aktiviteettimoottori",
        "Name[fr]": "Moteur d'activités",
        "Name[ga]": "Inneall Gníomhaíochta",
        "Name[gl]": "Motor de actividades",
        "Name[he]": "מנוע הפעילויות",
        "Name[hi]": "गतिविधियाँ इंजन",
        "Name[hr]": "Mehanizam aktivnosti",
        "Name[hu]": "Aktivitások modul",
        "Name[ia]": "Motor de activitate",
        "Name[id]": "Mesin Activities",
        "Name[is]": "Athafnavél",
        "Name[it]": "Motore delle attività",
        "Name[ja]": "アクティビティエンジン",
        "Name[ka]": "ქმედებების ძრავი",
        "Name[kk]": "Белсенділік тетігі",
        "Name[km]": "ម៉ាស៊ីន​សកម្មភាព",
        "Name[kn]": "ಚಟುವಟಿಕೆ ಎಂಜಿನ್",
        "Name[ko]": "활동 엔진",
        "Name[lt]": "Veiklų variklis",
        "Name[lv]": "Aktivitāšu dzinējs",
        "Name[ml]": "ആക്ടിവിറ്റീസ് എന്‍ജിന്‍",
        "Name[mr]": "कार्यपध्दती इंजिन",
        "Name[nb]": "Aktivitetsmotor",
        "Name[nds]": "Aktivitetenpleger",
        "Name[nl]": "Activiteiten-engine",
        "Name[nn]": "Aktivitets­motor",
        "Name[pa]": "ਸਰਗਰਮੀ ਇੰਜਣ",
        "Name[pl]": "Silnik aktywności",
        "Name[pt]": "Motor de Actividades",
        "Name[pt_BR]": "Mecanismo de atividades",
        "Name[ro]": "Motor de activități",
        "Name[ru]": "Источник данных для комнат",
        "Name[sk]": "Nástroj aktivít",
        "Name[sl]": "Pogon za dejavnosti",
        "Name[sr@ijekavian]": "мотор активности",
        "Name[sr@ijekavianlatin]": "motor aktivnosti",
        "Name[sr@latin]": "motor aktivnosti",
        "Name[sr]": "мотор активности",
        "Name[sv]": "Aktivitetsgränssnitt",
        "Name[ta]": "செயல்பாட்டு பின்னணி சேவை",
        "Name[tg]": "Низоми фаъолиятҳо",
        "Name[th]": "กลไกจัดการกิจกรรม",
        "Name[tr]": "Etkinlik Motoru",
        "Name[ug]": "پائالىيەت ماتورى",
        "Name[uk]": "Рушій просторів дій",
        "Name[vi]": "Dụng cụ \"Hoạt động\"",
        "Name[wa]": "Moteur d' activités",
        "Name[x-test]": "xxActivities Enginexx",
        "Name[zh_CN]": "活动引擎",
        "Name[zh_TW]": "活動引擎",
        "Website": "https://www.kde.org/plasma-desktop"
    },
    "X-Plasma-EngineName": "activities"
}
